<?xml version="1.0" encoding="UTF-8" standalone="no"?>
<!-- Created with Inkscape (http://www.inkscape.org/) -->

<svg
   xmlns:dc="http://purl.org/dc/elements/1.1/"
   xmlns:cc="http://creativecommons.org/ns#"
   xmlns:rdf="http://www.w3.org/1999/02/22-rdf-syntax-ns#"
   xmlns:svg="http://www.w3.org/2000/svg"
   xmlns="http://www.w3.org/2000/svg"
   xmlns:sodipodi="http://sodipodi.sourceforge.net/DTD/sodipodi-0.dtd"
   xmlns:inkscape="http://www.inkscape.org/namespaces/inkscape"
   id="svg5722"
   sodipodi:docname="Scale.svg"
   xml:space="preserve"
   viewBox="0 0 40 40"
   sodipodi:version="0.32"
   version="1.0"
   inkscape:output_extension="org.inkscape.output.svg.inkscape"
   inkscape:version="0.48.4 r9939"
   width="100%"
   height="100%"><defs
     id="defs36" /><sodipodi:namedview
     id="base"
     bordercolor="#666666"
     inkscape:pageshadow="2"
     guidetolerance="10.0"
     pagecolor="#ffffff"
     gridtolerance="10.0"
     inkscape:zoom="4.3160493"
     objecttolerance="10.0"
     borderopacity="1.0"
     inkscape:current-layer="g5729"
     inkscape:cx="-1.7979421"
     inkscape:cy="2.3722535"
     inkscape:window-y="16"
     inkscape:window-x="0"
     inkscape:window-height="851"
     showgrid="false"
     inkscape:pageopacity="0.0"
     inkscape:window-width="1598"
     inkscape:window-maximized="0" /><g
     id="g5729"
     inkscape:label="guide"
     inkscape:groupmode="layer"
     transform="matrix(1.25,0,0,-1.25,-10.688,712.86)"><path
       inkscape:connector-curvature="0"
       d="m -68.69723,1163.9941 h 0.11961 -0.11961"
       style="fill:#f9a749"
       id="path5755" /><text
       transform="scale(1,-1)"
       style="font-size:152.67552185px"
       x="-204.51369"
       y="-836.37433"
       id="text6003"><tspan
         x="-204.51369"
         y="-836.37433"
         inkscape:font-specification="ZapfDingbats"
         style="font-size:139.95698547px;fill:#2857af;font-family:ZapfDingbats"
         sodipodi:role="line"
         id="tspan6005" /></text>
<g
       id="g3041"
       transform="matrix(0.26665071,0,0,0.26665071,4.0712855,398.45022)"
       style="stroke:#000000;stroke-opacity:1;stroke-width:0.99905978;stroke-miterlimit:4;stroke-dasharray:none"><path
         id="path6129"
         style="fill:#1f57af;stroke:#000000;stroke-opacity:1;stroke-width:0.99905978;stroke-miterlimit:4;stroke-dasharray:none"
         d="m 132.89878,624.18092 -0.35883,-2.19285 -89.66763,-81.4677 -4.79769,-2.24601 c -5.38245,5.95392 -10.71174,11.86797 -16.09419,17.8086 1.1961,2.17956 1.71441,4.9173 3.14973,6.71145 l 34.51413,26.68632 c 0.17277,0.82398 1.18281,0.70437 1.63467,1.20939 l 32.66682,25.5168 27.15147,20.62608 1.62138,0.22593 c 3.37566,-4.30596 7.08357,-8.33283 10.18014,-12.87801"
         inkscape:connector-curvature="0" /><path
         id="path6155"
         style="fill:#ffffff;stroke:#000000;stroke-opacity:1;stroke-width:0.99905978;stroke-miterlimit:4;stroke-dasharray:none"
         d="m 79.85839,579.12782 -39.00615,-35.01915 -14.68545,16.6125 3.13644,2.43207 4.29267,-5.68812 c 0.59805,-0.0399 0.7974,0.69108 0.78411,1.08978 -1.28913,1.76757 -2.55168,3.5883 -3.97371,5.27613 0.71766,0.98346 2.03337,1.76757 3.0567,2.72445 3.4554,-4.19964 6.47223,-8.61192 10.31304,-12.41286 0.69108,0.5316 1.35558,0.99675 1.91376,1.67454 -3.56172,3.88068 -5.72799,8.79798 -9.48906,12.47931 0.45186,0.90372 1.82073,1.64796 2.77761,2.48523 1.48848,-1.71441 2.59155,-3.68133 4.47873,-5.10336 0.58476,0.19935 1.27584,0.73095 0.57147,1.38216 -1.31571,1.4619 -2.21943,3.24276 -3.53514,4.70466 1.22268,1.30242 3.03012,2.658 4.53189,3.64146 1.67454,-1.51506 2.72445,-3.4554 4.39899,-4.98375 0.25251,0.17277 0.59805,0.35883 0.70437,0.67779 -0.86385,1.98021 -2.35233,3.54843 -3.5883,5.28942 0.81069,1.39545 2.73774,2.28588 4.04016,3.46869 1.4619,-1.63467 3.04341,-3.1896 4.2528,-4.98375 0.35883,0.10632 0.70437,0.29238 0.90372,0.63792 l -3.64146,5.316 c 0.65121,0.71766 1.8606,1.71441 2.9238,2.33904 3.37566,-3.37566 5.55522,-7.76136 8.94417,-11.15031 0.65121,0.71766 1.82073,1.26255 2.60484,2.20614 -2.5251,4.05345 -6.15327,7.41582 -8.73153,11.25663 l 2.73774,2.1264 4.21293,-4.87743 0.71766,0.29238 c -0.87714,1.82073 -2.29917,3.52185 -3.66804,5.16981 0.87714,1.35558 2.55168,2.23272 3.84081,3.34908 1.30242,-1.22268 2.56497,-3.29592 3.82752,-4.87743 0.49173,-0.21264 0.63792,0.31896 0.9303,0.54489 -0.82398,2.03337 -2.7909,3.1896 -3.7212,5.19639 l 4.1199,3.1896 c 1.5948,-1.39545 2.68458,-3.12315 3.93384,-4.70466 0.55818,-0.10632 0.6645,0.46515 1.01004,0.65121 l -3.89397,4.9173 c 1.30242,0.47844 2.77761,3.26934 3.89397,1.4619 l 7.0437,-8.94417 c 1.04991,0.86385 3.54843,1.80744 1.4619,3.41553 -2.32575,2.68458 -4.01358,5.76786 -6.57855,8.27967 1.18281,1.24926 2.63142,2.11311 3.93384,3.13644 1.34229,-1.40874 2.1264,-3.25605 3.70791,-4.42557 0.59805,-0.0266 0.6645,0.47844 1.03662,0.71766 l -3.69462,4.57176 3.34908,2.55168 c 1.44861,-1.23597 2.45865,-2.84406 3.5883,-4.35912 l 1.15623,0.65121 c -1.24926,1.43532 -2.41878,2.89722 -3.5883,4.34583 0.70437,1.07649 2.19285,1.75428 3.25605,2.76432 1.31571,-0.9303 2.55168,-2.658 3.53514,-4.17306 l 0.98346,0.35883 c -0.69108,1.7277 -2.15298,3.20289 -3.46869,4.67808 1.01004,0.41199 1.83402,1.95363 2.77761,1.56822 2.33904,-3.16302 4.82427,-6.10011 7.1766,-9.10365 0.83727,0.21264 1.56822,0.94359 2.19285,1.74099 -2.17956,3.30921 -4.70466,6.17985 -7.0437,9.34287 0.78411,0.9303 1.95363,1.88718 3.14973,2.57826 0.7974,-1.54164 2.1264,-2.72445 2.9238,-4.27938 l 1.15623,0.65121 c -0.51831,1.62138 -1.94034,2.9238 -2.93709,4.27938 0.75753,0.87714 2.07324,2.05995 3.30921,2.72445 1.31571,-1.07649 2.02008,-2.658 3.01683,-4.01358 l 0.81069,0.45186 c -0.3987,1.71441 -1.88718,2.89722 -2.84406,4.30596 l 2.7909,2.2593 c 1.30242,-0.83727 2.31246,-2.43207 3.17631,-3.88068 0.37212,0.093 0.67779,0.22593 0.87714,0.57147 -0.77082,1.47519 -1.7277,2.88393 -2.7909,4.13319 1.04991,0.31896 1.88718,2.55168 2.91051,1.24926 l 5.72799,-7.48227 c 0.94359,0.14619 1.87389,0.9303 2.49852,1.7277 l -5.83431,8.2398 c 0.87714,1.50177 2.80419,2.40549 4.17306,3.54843 0.97017,-0.73095 1.88718,-2.35233 2.77761,-3.49527 l 0.81069,0.45186 c 0.37212,2.11311 -5.24955,4.31925 -0.62463,5.5818 l 8.47902,-10.33962 -50.30265,-45.17271"
         inkscape:connector-curvature="0" /></g></g><metadata
     id="metadata34"><rdf:RDF><cc:Work><dc:format>image/svg+xml</dc:format><dc:type
           rdf:resource="http://purl.org/dc/dcmitype/StillImage" /><cc:license
           rdf:resource="http://creativecommons.org/licenses/publicdomain/" /><dc:publisher><cc:Agent
             rdf:about="http://openclipart.org/"><dc:title>Openclipart</dc:title></cc:Agent></dc:publisher><dc:title></dc:title><dc:date>2007-11-09T04:59:43</dc:date><dc:description>an image from the US government EPA &quot;Sunwise&quot; program. I converted it from PDF format, and removed all the &quot;sunwise&quot; logos. the source link is here - http://www.epa.gov/sunwise/doc/guide.pdf</dc:description><dc:source>https://openclipart.org/detail/8055/ruler-and-calculator-by-ryanlerch</dc:source><dc:creator><cc:Agent><dc:title>ryanlerch</dc:title></cc:Agent></dc:creator><dc:subject><rdf:Bag><rdf:li>adding machine</rdf:li><rdf:li>calculator</rdf:li><rdf:li>counting</rdf:li><rdf:li>epa</rdf:li><rdf:li>epa sunwise</rdf:li><rdf:li>equals</rdf:li><rdf:li>externalsource</rdf:li><rdf:li>geometry</rdf:li><rdf:li>maths</rdf:li><rdf:li>plus</rdf:li><rdf:li>rule</rdf:li><rdf:li>ruler</rdf:li></rdf:Bag></dc:subject></cc:Work><cc:License
         rdf:about="http://creativecommons.org/licenses/publicdomain/"><cc:permits
           rdf:resource="http://creativecommons.org/ns#Reproduction" /><cc:permits
           rdf:resource="http://creativecommons.org/ns#Distribution" /><cc:permits
           rdf:resource="http://creativecommons.org/ns#DerivativeWorks" /></cc:License></rdf:RDF></metadata></svg>