<?xml version="1.0" encoding="UTF-8" standalone="no"?>
<!-- Created with Inkscape (http://www.inkscape.org/) -->

<svg
   xmlns:dc="http://purl.org/dc/elements/1.1/"
   xmlns:cc="http://creativecommons.org/ns#"
   xmlns:rdf="http://www.w3.org/1999/02/22-rdf-syntax-ns#"
   xmlns:svg="http://www.w3.org/2000/svg"
   xmlns="http://www.w3.org/2000/svg"
   xmlns:xlink="http://www.w3.org/1999/xlink"
   xmlns:sodipodi="http://sodipodi.sourceforge.net/DTD/sodipodi-0.dtd"
   xmlns:inkscape="http://www.inkscape.org/namespaces/inkscape"
   version="1.1"
   width="128"
   height="128"
   id="svg2"
   inkscape:version="0.91 r13725"
   sodipodi:docname="application-openmeca.svg"
   inkscape:export-filename="/home/dada/work/dev/openmeca/SRC/OpenMeca/Icons/Mini-Logo-48px.png"
   inkscape:export-xdpi="109.63609"
   inkscape:export-ydpi="109.63609">
  <sodipodi:namedview
     pagecolor="#ffffff"
     bordercolor="#666666"
     borderopacity="1"
     objecttolerance="10"
     gridtolerance="10"
     guidetolerance="10"
     inkscape:pageopacity="0"
     inkscape:pageshadow="2"
     inkscape:window-width="1598"
     inkscape:window-height="823"
     id="namedview6409"
     showgrid="false"
     inkscape:snap-bbox="true"
     inkscape:zoom="1.2880859"
     inkscape:cx="-31.753087"
     inkscape:cy="-9.9935059"
     inkscape:window-x="0"
     inkscape:window-y="24"
     inkscape:window-maximized="0"
     inkscape:current-layer="svg2"
     showguides="false">
    <inkscape:grid
       type="xygrid"
       id="grid6411"
       empspacing="1"
       dotted="true"
       visible="true"
       enabled="true"
       snapvisiblegridlinesonly="true" />
  </sodipodi:namedview>
  <defs
     id="defs4">
    <linearGradient
       id="linearGradient3872">
      <stop
         id="stop3874"
         style="stop-color:#ffffff;stop-opacity:1"
         offset="0" />
      <stop
         id="stop3876"
         style="stop-color:#0000ff;stop-opacity:1"
         offset="1" />
    </linearGradient>
    <linearGradient
       id="linearGradient3854">
      <stop
         id="stop3856"
         style="stop-color:#ff0000;stop-opacity:1"
         offset="0" />
      <stop
         id="stop3862"
         style="stop-color:#ffffff;stop-opacity:1"
         offset="0.5" />
      <stop
         id="stop3858"
         style="stop-color:#ff0000;stop-opacity:1"
         offset="1" />
    </linearGradient>
    <linearGradient
       id="linearGradient3755">
      <stop
         id="stop3757"
         style="stop-color:#ffffff;stop-opacity:1"
         offset="0" />
      <stop
         id="stop3759"
         style="stop-color:#ff0000;stop-opacity:1"
         offset="1" />
    </linearGradient>
    <radialGradient
       cx="325.71429"
       cy="436.64789"
       r="96.708328"
       fx="325.71429"
       fy="436.64789"
       id="radialGradient3761"
       xlink:href="#linearGradient3755"
       gradientUnits="userSpaceOnUse"
       gradientTransform="matrix(0.36211236,0,0,0.36171798,39.815222,321.2284)" />
    <clipPath
       clipPathUnits="userSpaceOnUse"
       id="clipPath4163">
      <circle
         style="fill:none;fill-opacity:1;stroke:#000000;stroke-width:0.5;stroke-linecap:round;stroke-linejoin:round;stroke-miterlimit:4;stroke-dasharray:0.5, 1;stroke-dashoffset:0;stroke-opacity:1"
         id="circle4165"
         cx="15"
         cy="25"
         r="15" />
    </clipPath>
    <clipPath
       clipPathUnits="userSpaceOnUse"
       id="clipPath4197">
      <circle
         style="fill:none;fill-opacity:1;stroke:#000000;stroke-width:0.61410201;stroke-linecap:round;stroke-linejoin:round;stroke-miterlimit:4;stroke-dasharray:none;stroke-dashoffset:0;stroke-opacity:1"
         id="circle4199"
         cx="31.556349"
         cy="17.713625"
         r="19.419611" />
    </clipPath>
    <filter
       id="6">
      <feGaussianBlur
         stdDeviation="2.58594"
         id="M" />
    </filter>
    <radialGradient
       xlink:href="#2"
       r="44.419998"
       cy="100.32"
       cx="81.790001"
       gradientTransform="matrix(2.0026052,-1.5970314,1.7773333,2.2286954,-279.23554,23.703826)"
       gradientUnits="userSpaceOnUse"
       id="7" />
    <linearGradient
       id="2">
      <stop
         id="F"
         stop-color="#eee" />
      <stop
         offset="1"
         id="G"
         stop-color="#d2d2d2" />
    </linearGradient>
    <radialGradient
       xlink:href="#3"
       r="18.278999"
       cy="22.254"
       cx="89.510002"
       gradientTransform="matrix(1,0,0,0.97467889,0,0.43910718)"
       gradientUnits="userSpaceOnUse"
       id="8" />
    <linearGradient
       id="3">
      <stop
         id="H" />
      <stop
         offset="1"
         id="I"
         stop-opacity="0.536" />
    </linearGradient>
    <filter
       id="5"
       x="-0.147"
       width="1.294"
       y="-0.145"
       height="1.29">
      <feGaussianBlur
         stdDeviation="1.81881"
         id="L" />
    </filter>
    <linearGradient
       xlink:href="#4"
       y2="25.1"
       x2="86.82"
       y1="14.793"
       x1="98.330002"
       gradientTransform="matrix(0.96714879,0,0,0.96714879,5.7242712,3.4943798)"
       gradientUnits="userSpaceOnUse"
       id="9" />
    <linearGradient
       id="4">
      <stop
         id="J" />
      <stop
         offset="1"
         id="K"
         stop-color="#ddd"
         stop-opacity="0" />
    </linearGradient>
    <clipPath
       clipPathUnits="userSpaceOnUse"
       id="clipPath4197-3">
      <circle
         style="fill:none;fill-opacity:1;stroke:#000000;stroke-width:0.61410201;stroke-linecap:round;stroke-linejoin:round;stroke-miterlimit:4;stroke-dasharray:none;stroke-dashoffset:0;stroke-opacity:1"
         id="circle4199-6"
         cx="31.556349"
         cy="17.713625"
         r="19.419611" />
    </clipPath>
    <clipPath
       clipPathUnits="userSpaceOnUse"
       id="clipPath4163-7">
      <circle
         style="fill:none;fill-opacity:1;stroke:#000000;stroke-width:0.5;stroke-linecap:round;stroke-linejoin:round;stroke-miterlimit:4;stroke-dasharray:0.5, 1;stroke-dashoffset:0;stroke-opacity:1"
         id="circle4165-5"
         cx="15"
         cy="25"
         r="15" />
    </clipPath>
    <filter
       id="6-3">
      <feGaussianBlur
         stdDeviation="2.58594"
         id="M-6" />
    </filter>
    <radialGradient
       xlink:href="#2"
       r="44.419998"
       cy="100.32"
       cx="81.790001"
       gradientTransform="matrix(2.0026052,-1.5970314,1.7773333,2.2286954,-273.96749,27.285009)"
       gradientUnits="userSpaceOnUse"
       id="7-7" />
    <radialGradient
       xlink:href="#3"
       r="18.278999"
       cy="22.254"
       cx="89.510002"
       gradientTransform="matrix(1,0,0,0.97467889,0,0.43910718)"
       gradientUnits="userSpaceOnUse"
       id="8-5" />
    <filter
       id="5-9"
       x="-0.147"
       width="1.294"
       y="-0.145"
       height="1.29">
      <feGaussianBlur
         stdDeviation="1.81881"
         id="L-1" />
    </filter>
    <filter
       inkscape:collect="always"
       style="color-interpolation-filters:sRGB"
       id="filter5398"
       x="-0.054317041"
       width="1.1086341"
       y="-0.18521622"
       height="1.3704324">
      <feGaussianBlur
         inkscape:collect="always"
         stdDeviation="0.67969513"
         id="feGaussianBlur5400" />
    </filter>
  </defs>
  <metadata
     id="metadata7">
    <rdf:RDF>
      <cc:Work
         rdf:about="">
        <dc:format>image/svg+xml</dc:format>
        <dc:type
           rdf:resource="http://purl.org/dc/dcmitype/StillImage" />
        <dc:title />
      </cc:Work>
    </rdf:RDF>
  </metadata>
  <path
     d="m 20.09375,4.1185004 0,117.9999996 88.84375,0 0,-86.15625 -0.59375,-0.625 c 0.21045,0.144391 0.41688,0.302162 0.625,0.4375 L 78.09375,4.1497504 c 0.05654,0.079597 0.09993,0.1703021 0.15625,0.25 l -0.25,-0.28125 -57.90625,0 z"
     id="A"
     transform="matrix(0.96714879,0,0,0.97126149,5.7242712,2.9666149)"
     inkscape:connector-curvature="0"
     style="opacity:0.80899999;filter:url(#6-3)" />
  <path
     d="m 25.157917,6.1238156 0,114.1235544 85.925123,0 0,-83.32591 -29.921163,-30.7976444 -56.00396,0 z"
     id="B"
     inkscape:connector-curvature="0"
     style="fill:url(#7-7)" />
  <path
     id="C"
     d="m 81.698039,28.309502 0.135161,-8.351 C 81.901124,13.359407 80.956142,8.4107397 77.785779,3.9471419 L 80.362343,3.9159389 107.86271,29.53084 c -4.06802,-2.645393 -9.621189,-0.791242 -16.861906,-1.025606 l -9.302765,-0.195732 z"
     transform="matrix(1.016085,0,0,1.112241,0.3433534,3.2359418)"
     inkscape:connector-curvature="0"
     style="opacity:0.50499998;fill:url(#8-5);filter:url(#5-9)" />
  <path
     d="m 86.883911,29.392864 0.130721,-8.07666 C 87.080324,14.933898 84.323055,10.480135 81.256842,6.1631716 L 111.12358,36.751338 c -3.93438,-2.558489 -8.23966,-6.942507 -15.242511,-7.169171 l -8.997158,-0.189303 z"
     id="D"
     inkscape:connector-curvature="0"
     style="fill:#eeeeee" />
  <path
     id="E"
     d="m 86.883911,29.392864 0.130721,-8.07666 C 87.080324,14.933898 84.323055,10.480135 81.256842,6.1631716 L 111.12358,36.751338 c -3.93438,-2.558489 -8.23966,-6.942507 -15.242511,-7.169171 l -8.997158,-0.189303 z"
     inkscape:connector-curvature="0"
     style="fill:url(#9)" />
  <text
     xml:space="preserve"
     style="font-style:normal;font-variant:normal;font-weight:normal;font-stretch:normal;font-size:16.25px;line-height:125%;font-family:Arial;-inkscape-font-specification:Arial;text-align:end;letter-spacing:0px;word-spacing:0px;text-anchor:end;fill:#000000;fill-opacity:1;stroke:none;stroke-width:1px;stroke-linecap:butt;stroke-linejoin:miter;stroke-opacity:1"
     x="107.64312"
     y="116.34673"
     id="text5352"
     sodipodi:linespacing="125%"><tspan
       sodipodi:role="line"
       id="tspan5354"
       x="107.64312"
       y="116.34673">omc</tspan></text>
  <text
     xml:space="preserve"
     style="font-style:normal;font-variant:normal;font-weight:normal;font-stretch:normal;font-size:16.25px;line-height:125%;font-family:Arial;-inkscape-font-specification:Arial;text-align:end;letter-spacing:0px;word-spacing:0px;text-anchor:end;fill:#000000;fill-opacity:1;stroke:none;stroke-width:1px;stroke-linecap:butt;stroke-linejoin:miter;stroke-opacity:1;filter:url(#filter5398)"
     x="106.56867"
     y="117.39135"
     id="text5352-7"
     sodipodi:linespacing="125%"><tspan
       sodipodi:role="line"
       id="tspan5354-3"
       x="106.56867"
       y="117.39135">omc</tspan></text>
  <path
     inkscape:connector-curvature="0"
     d="m 112.1663,98.450038 -3.58199,0.238882 -0.79758,-1.340928 -1.6323,-0.691377 -1.71412,-0.609555 -1.66502,-0.466373 -1.45231,-0.282277 -0.56455,-0.126819 -0.0696,-1.239568 -0.0859,-1.231385 0.54818,-0.200459 1.39913,-0.462281 1.59548,-0.670921 1.62002,-0.818197 1.53821,-0.895925 -0.29864,-2.376862 -1.71412,-0.482735 -1.77139,-0.388644 -1.71413,-0.257732 -1.47275,-0.09409 -0.576826,-0.05728 -0.220913,-1.219113 -0.241374,-1.215022 0.515473,-0.261823 1.33365,-0.638194 1.5014,-0.863197 1.50139,-1.014564 1.41139,-1.080019 -0.5932,-2.319588 -1.75912,-0.265914 -1.80821,-0.163639 -1.730488,-0.04091 -1.476849,0.08591 -0.580921,0.02046 -0.372272,-1.178203 -0.388653,-1.174112 0.478655,-0.33137 1.239568,-0.797741 1.382742,-1.0432 1.366398,-1.194572 1.26411,-1.251841 -0.88365,-2.229586 -1.77549,-0.045 -1.812305,0.06545 -1.726394,0.184095 -1.448204,0.265914 -0.576829,0.09 -0.515472,-1.120929 -0.540013,-1.116839 0.441826,-0.380461 1.129118,-0.949108 1.239568,-1.215023 1.202751,-1.358206 1.104564,-1.390934 -1.15775,-2.102766 -1.767303,0.175913 -1.795949,0.29046 -1.685485,0.396826 -1.403203,0.450007 -0.56046,0.159549 -0.654554,-1.047293 -0.670924,-1.039109 0.384549,-0.437735 1.002285,-1.084111 1.080025,-1.358206 1.022747,-1.493209 0.916376,-1.521846 -1.407295,-1.943217 -1.734579,0.400916 -1.742763,0.511374 -1.620024,0.605465 -1.337754,0.621829 -0.53592,0.229095 -0.781373,-0.95729 -0.797742,-0.949108 0.331363,-0.482736 0.859112,-1.194567 0.895928,-1.485027 0.830466,-1.611847 0.720016,-1.628212 -1.644576,-1.74685 -1.665025,0.613648 -1.665038,0.728195 -1.538206,0.797742 -1.247752,0.789559 -0.503195,0.294551 -0.891823,-0.855015 -0.908205,-0.838652 0.265914,-0.519555 0.699555,-1.296842 0.703648,-1.58321 0.625922,-1.70594 0.507288,-1.70185 -1.853213,-1.525936 -1.574996,0.818197 -1.558661,0.924561 -1.423662,0.990019 -1.141385,0.936836 -0.458189,0.355914 -0.9982,-0.732286 -1.006423,-0.720012 0.200457,-0.548192 0.535919,-1.378661 0.499141,-1.656848 0.400917,-1.771397 0.29451,-1.75094 -2.025037,-1.28457 -1.464572,1.010473 -1.431843,1.116839 -1.288661,1.153657 -1.014564,1.075929 -0.409097,0.409098 -1.080021,-0.601374 -1.092292,-0.593194 0.130911,-0.564554 0.355916,-1.431845 0.290459,-1.710031 0.175913,-1.804123 0.07363,-1.775487 -2.172313,-1.022746 -1.325457,1.190476 -1.280478,1.284569 -1.133203,1.309115 -0.871379,1.190476 -0.355916,0.458191 -1.149566,-0.462282 -1.149567,-0.445918 0.05319,-0.580918 0.175912,-1.464573 0.07363,-1.730485 -0.05319,-1.812307 -0.155457,-1.771395 -2.282769,-0.744559 -1.161839,1.345933 -1.108657,1.435935 -0.95729,1.440027 -0.715922,1.29275 -0.298642,0.4991 -1.194567,-0.319097 -1.198658,-0.29455 -0.02045,-0.585011 -0.0082,-1.472754 -0.147325,-1.726399 -0.274096,-1.795942 -0.37637,-1.734577 -2.356406,-0.450008 -0.990019,1.476845 -0.91638,1.566847 -0.773196,1.550482 -0.548192,1.37048 -0.229094,0.535919 -1.227295,-0.16364 -1.227295,-0.147275 -0.09409,-0.576829 -0.192277,-1.464572 -0.355914,-1.693667 -0.503192,-1.742759 -0.593193,-1.677303 -2.393225,-0.151366 -0.78956,1.591392 -0.715921,1.66503 -0.572738,1.636394 -0.376371,1.427753 -0.159548,0.560465 -2.746966,-0.0082 -0.01335,-11.138985 C 82.855945,14.95919 112.96587,58.293183 112.16628,98.45002 Z"
     style="fill:#ffffbd;fill-opacity:1;stroke:#000000;stroke-width:1.34612703;stroke-linecap:round;stroke-linejoin:round;stroke-miterlimit:4;stroke-dasharray:none;stroke-opacity:1"
     id="gear50"
     sodipodi:nodetypes="ccccccccccccccccccccccccccccccccccccccccccccccccccccccccccccccccccccccccccccccccccccccccccccccccccccccccccccccccccccccccccccccccccccccccccccccccccccccccccccccccccccccc" />
  <path
     inkscape:connector-curvature="0"
     d="m 56.756595,30.580557 -0.540009,1.039109 -0.474555,1.100475 -0.351825,1.080019 -0.20864,0.953199 -0.06954,0.66274 0.004,0.237277 0.184094,1.99231 -1.70594,0.216822 -1.689575,0.319096 -0.441827,-1.951399 -0.06954,-0.225004 -0.270005,-0.609557 -0.486827,-0.838651 -0.670922,-0.924563 -0.78956,-0.900016 -0.834559,-0.818197 -2.045493,0.662739 -0.196366,1.157749 -0.106371,1.186385 -0.004,1.141385 0.09819,0.969562 0.139093,0.650466 0.07772,0.225004 0.79365,1.836852 -1.558665,0.732287 -1.513663,0.83456 -1.018655,-1.722304 -0.135003,-0.196368 -0.445916,-0.495008 -0.724105,-0.646375 -0.924562,-0.666831 -1.022745,-0.617738 -1.051383,-0.519555 -1.738669,1.264114 0.171821,1.157747 0.265914,1.165931 0.347734,1.088202 0.392734,0.887743 0.335462,0.576828 0.139092,0.188186 1.325479,1.501391 -1.260022,1.182294 -1.178204,1.255932 -1.4973,-1.325478 -0.196366,-0.139094 -0.572738,-0.335461 -0.891835,-0.388643 -1.088201,-0.355916 -1.157749,-0.265914 -1.161839,-0.16773 -1.260023,1.738669 0.519555,1.047291 0.609557,1.026836 0.670921,0.924563 0.646375,0.728194 0.49501,0.437736 0.196366,0.139093 1.718214,1.022747 -0.83047,1.505481 -0.728196,1.562756 -1.840941,-0.793651 -0.225004,-0.07773 -0.646377,-0.139094 -0.973653,-0.09409 -1.137293,0 -1.194568,0.110463 -1.149566,0.192277 -0.666831,2.045491 0.822289,0.83047 0.900016,0.78956 0.91638,0.670921 0.842743,0.49501 0.609556,0.265914 0.225004,0.06954 1.95549,0.441825 -0.323187,1.693668 -0.220913,1.70594 -1.988219,-0.188185 -0.237277,0 -0.662738,0.06546 -0.949109,0.20864 -1.088202,0.351824 -1.096383,0.470463 -1.035019,0.540009 0,2.151858 1.035019,0.544101 1.096383,0.466372 1.088202,0.355915 0.949109,0.204549 0.662738,0.06954 0.237277,0 1.988219,-0.188181 0.220913,1.710026 0.323187,1.693668 -1.95549,0.433644 -0.225004,0.07363 -0.609556,0.270005 -0.842743,0.486828 -0.91638,0.675011 -0.900016,0.785469 -0.822289,0.838656 0.666831,2.041401 1.149566,0.196367 1.194568,0.106358 1.137293,0 0.973653,-0.09819 0.646377,-0.139094 0.225004,-0.07363 1.840941,-0.797746 0.728196,1.562756 0.83047,1.509573 -1.718214,1.018655 -0.196366,0.143183 -0.49501,0.437737 -0.646375,0.732285 -0.670921,0.920472 -0.609557,1.026836 -0.519555,1.047293 1.260023,1.738667 1.161839,-0.171821 1.157749,-0.265914 1.088201,-0.351825 0.891835,-0.392734 0.572738,-0.33137 0.196366,-0.143184 1.4973,-1.317297 1.178204,1.251841 1.260022,1.178203 -1.325479,1.505482 -0.139092,0.192276 -0.335462,0.572738 -0.392734,0.891834 -0.347734,1.084111 -0.265914,1.165931 -0.171821,1.157747 1.738669,1.264114 1.051383,-0.523646 1.022745,-0.613647 0.924562,-0.666831 0.724105,-0.646375 0.445916,-0.495008 0.135003,-0.192277 1.018655,-1.726395 1.513663,0.830469 1.558665,0.736377 -0.79365,1.836853 -0.07772,0.225003 -0.139093,0.650466 -0.09819,0.965472 0.004,1.141385 0.106371,1.190476 0.196366,1.153658 2.045493,0.662739 0.834559,-0.814106 0.78956,-0.900016 0.670922,-0.924562 0.486827,-0.842743 0.270005,-0.601374 0.06954,-0.229096 0.441827,-1.951398 1.689575,0.323188 1.70594,0.212731 -0.184094,1.992308 -0.004,0.241369 0.06954,0.654557 0.20864,0.953199 0.351825,1.08411 0.474555,1.096384 0.540009,1.039109 2.147766,0 0.540051,-1.039109 0.474554,-1.096384 0.351824,-1.08411 0.208641,-0.953199 0.06954,-0.654557 -0.004,-0.241369 -0.184094,-1.992308 1.70594,-0.212731 1.689555,-0.323188 0.441828,1.951398 0.06954,0.229096 0.270005,0.601374 0.486827,0.842743 0.670922,0.924562 0.78956,0.900016 0.83456,0.814106 2.045492,-0.662739 0.196366,-1.153658 0.106371,-1.190476 0.004,-1.141385 -0.09819,-0.965472 -0.139094,-0.650466 -0.07773,-0.225003 -0.793651,-1.836853 1.558664,-0.736377 1.513664,-0.830469 1.018654,1.726395 0.135003,0.192277 0.445917,0.495008 0.724105,0.646375 0.924561,0.666831 1.022745,0.613647 1.051379,0.523646 1.738671,-1.264114 -0.17182,-1.157747 -0.265914,-1.165931 -0.347731,-1.084111 -0.392733,-0.891834 -0.335468,-0.572738 -0.139082,-0.192276 -1.325486,-1.505482 1.260024,-1.178203 1.178197,-1.251841 1.497311,1.317297 0.196359,0.143184 0.572737,0.33137 0.891836,0.392734 1.088209,0.351825 1.15775,0.265914 1.161842,0.171821 1.260029,-1.738667 -0.519564,-1.047293 -0.609554,-1.026836 -0.670923,-0.920472 -0.64637,-0.732285 -0.495024,-0.437737 -0.19636,-0.143183 -1.718223,-1.018655 0.830479,-1.509573 0.728188,-1.562752 1.840963,0.797742 0.224992,0.07363 0.646383,0.139094 0.973653,0.09819 1.137289,0 1.194567,-0.106358 1.149565,-0.196367 0.666831,-2.041401 -0.822281,-0.838656 -0.900021,-0.785469 -0.916376,-0.675011 -0.842743,-0.486828 -0.609566,-0.270005 -0.225005,-0.07363 -1.955492,-0.433644 0.323191,-1.693668 0.220913,-1.710026 1.988216,0.188181 0.237269,0 0.662739,-0.06954 0.949113,-0.204549 1.088196,-0.355915 1.096393,-0.466372 1.035011,-0.544101 0,-2.151858 -1.035011,-0.540009 -1.096393,-0.470463 -1.088196,-0.351824 -0.949113,-0.20864 -0.662739,-0.06546 -0.237269,0 -1.988216,0.188185 -0.220913,-1.70594 -0.323191,-1.693668 1.955492,-0.441825 0.225005,-0.06954 0.609566,-0.265914 0.842743,-0.49501 0.916376,-0.670921 0.900021,-0.78956 0.822281,-0.83047 -0.666831,-2.045491 -1.149565,-0.192277 -1.194567,-0.110463 -1.137289,0 -0.973653,0.09409 -0.646383,0.139094 -0.224992,0.07773 -1.840963,0.793651 -0.728188,-1.562756 -0.830479,-1.505481 1.718223,-1.022747 0.19636,-0.139093 0.495024,-0.437736 0.64637,-0.728194 0.670923,-0.924563 0.609554,-1.026836 0.519564,-1.047291 -1.260029,-1.738669 -1.161842,0.16773 -1.15775,0.265914 -1.088209,0.355916 -0.891836,0.388643 -0.572737,0.335461 -0.196359,0.139094 -1.497311,1.325478 -1.178197,-1.255932 -1.260024,-1.182294 1.325486,-1.501391 0.139082,-0.188186 0.335468,-0.576828 0.392733,-0.887743 0.347731,-1.088202 0.265914,-1.165931 0.17182,-1.157747 -1.738671,-1.264114 -1.051379,0.519555 -1.022745,0.617738 -0.924561,0.666831 -0.724105,0.646375 -0.445917,0.495008 -0.135003,0.196368 -1.018654,1.722304 -1.513664,-0.83456 -1.558664,-0.732287 0.793651,-1.836852 0.07773,-0.225004 0.139094,-0.650466 0.09819,-0.969562 -0.004,-1.141385 -0.106371,-1.186385 -0.196366,-1.157749 -2.045492,-0.662739 -0.83456,0.818197 -0.78956,0.900016 -0.670922,0.924563 -0.486827,0.838651 -0.270005,0.609557 -0.06954,0.225004 -0.441828,1.951399 -1.689555,-0.319096 -1.70594,-0.216822 0.184094,-1.99231 0.004,-0.237277 -0.06954,-0.66274 -0.208641,-0.953199 -0.351824,-1.080019 -0.474554,-1.100475 -0.540051,-1.039109 -2.147766,0 z m 1.071838,31.717393 c 1.276386,0 2.307356,1.03502 2.307356,2.307316 0,1.272296 -1.03097,2.299132 -2.307356,2.299132 -1.272296,0 -2.303224,-1.026836 -2.303224,-2.299132 0,-1.272296 1.030928,-2.307316 2.303224,-2.307316 z"
     style="fill:#f1a875;fill-opacity:1;stroke:#000000;stroke-width:1.34612703;stroke-linecap:round;stroke-linejoin:round;stroke-miterlimit:4;stroke-dasharray:none;stroke-opacity:1"
     id="gear20" />
  <path
     inkscape:connector-curvature="0"
     d="m 17.04385,83.099704 -1.424113,1.083121 0.03126,1.011652 0.169677,0.961173 0.260232,0.935271 0.306771,0.764503 0.318352,0.501882 0.155277,0.155207 2.094903,2.000876 -1.055371,1.270622 -0.854819,1.406419 -2.586361,-1.328055 -0.228998,-0.07887 -0.54984,-0.12278 -0.794342,-0.09298 -0.996117,0.07783 -1.007741,0.185215 -0.9313931,0.25894 -0.5494486,1.714244 0.6237317,0.809711 0.690975,0.688092 0.764696,0.611745 0.749132,0.409937 0.53434,0.231456 0.165603,0.04395 2.940624,0.399112 -0.123844,1.619718 0.151722,1.683045 -2.919751,0.41332 -0.182397,0.0608 -0.535534,0.23039 -0.719191,0.44259 -0.761848,0.61208 -0.673849,0.73367 -0.658317,0.78023 0.565705,1.69589 1.010424,0.27534 0.963823,0.13563 0.976739,0.0321 0.840877,-0.0778 0.566601,-0.13725 0.182396,-0.0608 2.598712,-1.37574 0.873535,1.39052 1.071432,1.221 -2.113426,2.0807 -0.104755,0.13845 -0.288382,0.50589 -0.353006,0.77758 -0.244306,0.94832 -0.123978,1.01169 -0.02827,0.97544 1.468556,1.0411 0.900327,-0.35208 0.917121,-0.45687 0.842072,-0.53964 0.580744,-0.54735 0.36602,-0.42829 0.135796,-0.20055 1.271126,-2.61481 1.52797,0.61158 1.606837,0.38259 -0.474167,2.85784 -0.03102,0.21735 0.0467,0.5925 0.213632,0.79556 0.353371,0.90421 0.456868,0.91712 0.581039,0.82395 1.774926,-0.0314 0.535403,-0.83842 0.456473,-0.9199 0.368508,-0.88626 0.182232,-0.82411 0.01411,-0.56534 -0.01559,-0.20181 -0.502569,-2.88998 1.602789,-0.3794 1.513465,-0.6601 1.333058,2.61295 0.1087,0.17074 0.350684,0.44366 0.640492,0.54967 0.826767,0.48755 0.917323,0.46164 0.931523,0.3491 1.438353,-1.04044 -0.02999,-1.00777 -0.185211,-1.00774 -0.260232,-0.93527 -0.30677,-0.7645 -0.318353,-0.50189 -0.155277,-0.1552 -2.094903,-2.00088 1.055371,-1.27062 0.854821,-1.40642 2.586359,1.32806 0.228998,0.0789 0.54984,0.12278 0.793049,0.0891 0.997411,-0.074 1.00774,-0.18521 0.931393,-0.25894 0.549449,-1.71425 -0.608195,-0.76314 -0.706512,-0.73466 -0.764696,-0.61175 -0.749132,-0.40993 -0.534339,-0.23146 -0.166896,-0.0478 -2.939331,-0.39523 0.123843,-1.619716 -0.136189,-1.63648 2.904218,-0.459884 0.182398,-0.06085 0.535533,-0.230392 0.719192,-0.442591 0.761847,-0.612077 0.689384,-0.687097 0.642783,-0.826799 -0.565705,-1.695897 -0.994891,-0.228769 -0.979357,-0.182195 -0.976739,-0.03212 -0.840877,0.07781 -0.566601,0.137253 -0.182396,0.06085 -2.583177,1.422316 -0.88907,-1.437093 -1.071432,-1.221003 2.112134,-2.084581 0.106047,-0.134559 0.288383,-0.505892 0.353005,-0.777581 0.244306,-0.948318 0.139507,-0.965121 0.01279,-1.022009 -1.468556,-1.041099 -0.900328,0.352075 -0.917122,0.456868 -0.843363,0.535768 -0.579451,0.551231 -0.36602,0.428289 -0.135797,0.200549 -1.271125,2.614809 -1.52797,-0.611582 -1.606837,-0.382584 0.474167,-2.857847 0.03101,-0.217345 -0.0467,-0.592498 -0.213631,-0.795569 -0.353371,-0.904206 -0.441332,-0.870552 -0.582338,-0.827832 -1.789163,-0.01131 -0.535403,0.838424 -0.456473,0.919905 -0.368508,0.886251 -0.182232,0.824116 -0.01412,0.565342 0.01428,0.197929 0.503866,2.893859 -1.591135,0.427259 -1.525118,0.61224 -1.334353,-2.61683 L 20.710631,85.391322 20.359948,84.947667 19.719456,84.39799 18.892688,83.910447 17.975367,83.4488 17.043841,83.099709 Z m 9.617537,13.40824 c 1.135772,-0.383174 2.373961,0.238819 2.751959,1.372005 0.379296,1.137065 -0.254352,2.327391 -1.391416,2.706681 -1.133186,0.378 -2.354546,-0.19354 -2.733841,-1.33061 -0.377998,-1.133182 0.240116,-2.370077 1.373298,-2.748076 z"
     style="fill:#50c67b;fill-opacity:1;stroke:#000000;stroke-width:1.34612703;stroke-linecap:round;stroke-linejoin:round;stroke-miterlimit:4;stroke-dasharray:none;stroke-opacity:1"
     id="gear10" />
</svg>
