<?xml version="1.0" encoding="UTF-8" standalone="no"?>
<!-- Created with Inkscape (http://www.inkscape.org/) -->

<svg
   xmlns:dc="http://purl.org/dc/elements/1.1/"
   xmlns:cc="http://creativecommons.org/ns#"
   xmlns:rdf="http://www.w3.org/1999/02/22-rdf-syntax-ns#"
   xmlns:svg="http://www.w3.org/2000/svg"
   xmlns="http://www.w3.org/2000/svg"
   xmlns:xlink="http://www.w3.org/1999/xlink"
   xmlns:sodipodi="http://sodipodi.sourceforge.net/DTD/sodipodi-0.dtd"
   xmlns:inkscape="http://www.inkscape.org/namespaces/inkscape"
   version="1.1"
   width="300"
   height="240"
   id="svg2"
   inkscape:version="0.91 r13725"
   sodipodi:docname="Logo.svg"
   inkscape:export-filename="/home/dada/work/dev/openmeca/SRC/OpenMeca/Rsc/Img/Logo.png"
   inkscape:export-xdpi="90"
   inkscape:export-ydpi="90">
  <sodipodi:namedview
     pagecolor="#ffffff"
     bordercolor="#666666"
     borderopacity="1"
     objecttolerance="10"
     gridtolerance="10"
     guidetolerance="10"
     inkscape:pageopacity="0"
     inkscape:pageshadow="2"
     inkscape:window-width="1598"
     inkscape:window-height="803"
     id="namedview3004"
     showgrid="false"
     inkscape:zoom="1.0824173"
     inkscape:cx="206.43706"
     inkscape:cy="119.62733"
     inkscape:window-x="0"
     inkscape:window-y="0"
     inkscape:window-maximized="0"
     inkscape:current-layer="svg2"
     fit-margin-top="0"
     fit-margin-left="0"
     fit-margin-right="0"
     fit-margin-bottom="0" />
  <metadata
     id="metadata8">
    <rdf:RDF>
      <cc:Work
         rdf:about="">
        <dc:format>image/svg+xml</dc:format>
        <dc:type
           rdf:resource="http://purl.org/dc/dcmitype/StillImage" />
        <dc:title></dc:title>
      </cc:Work>
    </rdf:RDF>
  </metadata>
  <defs
     id="defs6">
    <linearGradient
       id="linearGradient3885">
      <stop
         style="stop-color:#ffeccc;stop-opacity:1;"
         offset="0"
         id="stop3887" />
      <stop
         style="stop-color:#ffffff;stop-opacity:0;"
         offset="1"
         id="stop3889" />
    </linearGradient>
    <path
       sodipodi:nodetypes="cc"
       inkscape:connector-curvature="0"
       id="path5015"
       d="m 112.28675,-43.294213 c 79.40698,6.895775 101.40672,50.2690736 106.22162,104.561901"
       style="fill:none;fill-rule:evenodd;stroke:none;stroke-width:1px;stroke-linecap:butt;stroke-linejoin:miter;stroke-opacity:1" />
  </defs>
  <g
     id="g5852"
     transform="matrix(1.7260912,0,0,1.7260912,-24.334949,-150.38181)">
    <g
       id="g5847">
      <path
         inkscape:connector-curvature="0"
         d="m 160.44809,201.54954 -4.32977,0.28875 -0.96409,-1.62086 -1.97306,-0.83571 -2.07197,-0.73681 -2.01262,-0.56373 -1.75549,-0.34121 -0.68241,-0.15329 -0.0841,-1.49835 -0.10381,-1.48845 0.66263,-0.24231 1.6912,-0.55879 1.92857,-0.81098 1.95822,-0.98901 1.85933,-1.08296 -0.36099,-2.87306 -2.07196,-0.58351 -2.1412,-0.46978 -2.07197,-0.31153 -1.7802,-0.11374 -0.69725,-0.0692 -0.26703,-1.47362 -0.29177,-1.46867 0.62309,-0.31649 1.61206,-0.77142 1.81484,-1.0434 1.81483,-1.22637 1.70603,-1.30549 -0.71704,-2.80383 -2.12635,-0.32143 -2.1857,-0.1978 -2.09175,-0.0495 -1.78516,0.10385 -0.7022,0.0247 -0.44999,-1.42417 -0.46979,-1.41922 0.57858,-0.40055 1.49835,-0.96428 1.6714,-1.26098 1.65166,-1.44396 1.528,-1.51318 -1.06812,-2.69504 -2.14615,-0.0544 -2.19064,0.0791 -2.0868,0.22253 -1.75054,0.32143 -0.69725,0.10879 -0.62308,-1.35494 -0.65275,-1.34999 0.53406,-0.45989 1.36484,-1.14725 1.49834,-1.46867 1.45384,-1.64175 1.33516,-1.68131 -1.39944,-2.54175 -2.13626,0.21264 -2.17087,0.3511 -2.03735,0.47967 -1.69614,0.54395 -0.67747,0.19286 -0.7912,-1.26593 -0.81099,-1.25604 0.46483,-0.52912 1.21153,-1.31043 1.30549,-1.64175 1.23626,-1.80494 1.10768,-1.83955 -1.70108,-2.34888 -2.0967,0.48461 -2.10659,0.61813 -1.95822,0.73186 -1.61703,0.75165 -0.6478,0.27692 -0.9445,-1.15714 -0.96428,-1.14725 0.40054,-0.58351 1.03847,-1.44395 1.08296,-1.79504 1.00384,-1.94835 0.87033,-1.96812 -1.98791,-2.11153 -2.01262,0.74176 -2.01263,0.88022 -1.85933,0.96428 -1.50824,0.95439 -0.60824,0.35604 -1.078,-1.03351 -1.09781,-1.01373 0.32143,-0.62802 0.8456,-1.56758 0.85054,-1.91372 0.75659,-2.06208 0.61319,-2.05713 -2.24009,-1.8445 -1.9038,0.98901 -1.88405,1.11757 -1.72087,1.1967 -1.37967,1.13241 -0.55384,0.43022 -1.20659,-0.88516 -1.21652,-0.87033 0.2423,-0.66263 0.6478,-1.66647 0.60335,-2.00274 0.48461,-2.1412 0.35599,-2.11647 -2.44779,-1.55274 -1.77032,1.22142 -1.73076,1.34999 -1.55768,1.3945 -1.22637,1.30055 -0.4945,0.4945 -1.30549,-0.72692 -1.320323,-0.71703 0.15824,-0.68241 0.430218,-1.73076 0.351095,-2.06703 0.21264,-2.18075 0.089,-2.14615 -2.625812,-1.23625 -1.602163,1.439 -1.547794,1.55274 -1.369775,1.58241 -1.05329,1.439 -0.430218,0.55385 -1.389553,-0.55879 -1.389554,-0.53901 0.06429,-0.7022 0.212636,-1.77032 0.08901,-2.09174 -0.06429,-2.19065 -0.187911,-2.1412 -2.759327,-0.89999 -1.404388,1.62691 -1.340103,1.7357 -1.157137,1.74066 -0.86538,1.56262 -0.360988,0.6033 -1.443947,-0.38571 -1.448895,-0.35605 -0.02472,-0.70714 -0.0099,-1.78021 -0.178081,-2.0868 -0.331317,-2.17087 -0.454943,-2.09669 -2.848336,-0.54396 -1.196698,1.78516 -1.107686,1.89395 -0.934611,1.87416 -0.662634,1.65659 -0.276921,0.64779 -1.483509,-0.1978 -1.483509,-0.17802 -0.113736,-0.69725 -0.232417,-1.77032 -0.430216,-2.04724 -0.60824,-2.10658 -0.717029,-2.02746 -2.892842,-0.18297 -0.954391,1.92362 -0.865379,2.01262 -0.692305,1.97802 -0.454942,1.72581 -0.192856,0.67747 -3.320431,-0.01 -0.01614,-13.464394 C 125.01884,100.62892 161.4146,153.00945 160.44809,201.54954 Z"
         style="fill:#ffffbd;fill-opacity:1;stroke:#000000;stroke-width:1.62714851;stroke-linecap:round;stroke-linejoin:round;stroke-miterlimit:4;stroke-dasharray:none;stroke-opacity:1"
         id="gear50"
         sodipodi:nodetypes="ccccccccccccccccccccccccccccccccccccccccccccccccccccccccccccccccccccccccccccccccccccccccccccccccccccccccccccccccccccccccccccccccccccccccccccccccccccccccccccccccccccccc" />
      <path
         inkscape:connector-curvature="0"
         d="m 93.47089,119.51143 -0.652744,1.25604 -0.573623,1.33021 -0.425273,1.30549 -0.252197,1.15219 -0.08406,0.80109 0.0049,0.28681 0.222526,2.40823 -2.062078,0.26209 -2.042295,0.38571 -0.534065,-2.35878 -0.08406,-0.27197 -0.326372,-0.73681 -0.588458,-1.01373 -0.810986,-1.11758 -0.954391,-1.08791 -1.008785,-0.989 -2.472515,0.80109 -0.237361,1.39945 -0.128577,1.43405 -0.0049,1.37967 0.118684,1.17197 0.16813,0.78626 0.09395,0.27197 0.959334,2.22032 -1.884056,0.88516 -1.82966,1.00879 -1.231312,-2.08186 -0.163187,-0.23736 -0.539008,-0.59835 -0.87527,-0.78131 -1.117576,-0.80604 -1.236257,-0.7467 -1.270873,-0.62802 -2.101638,1.52801 0.207691,1.39945 0.321426,1.40933 0.420329,1.31538 0.474722,1.07307 0.405493,0.69725 0.16813,0.22747 1.60219,1.81483 -1.523068,1.42911 -1.42417,1.51812 -1.80988,-1.60219 -0.237361,-0.16813 -0.692304,-0.40549 -1.078017,-0.46978 -1.315377,-0.43021 -1.399444,-0.32143 -1.404388,-0.20275 -1.52307,2.10164 0.628019,1.26593 0.736811,1.2412 0.810983,1.11758 0.781315,0.88021 0.59835,0.52912 0.23736,0.16813 2.076913,1.23626 -1.003841,1.81977 -0.880216,1.889 -2.225262,-0.95934 -0.271977,-0.094 -0.781316,-0.16813 -1.176916,-0.11374 -1.374718,0 -1.443949,0.13353 -1.389552,0.23241 -0.806041,2.47252 0.993952,1.00384 1.087906,0.95439 1.107687,0.81099 1.018676,0.59834 0.736809,0.32143 0.271976,0.0841 2.363724,0.53406 -0.390657,2.04725 -0.267031,2.06207 -2.403286,-0.22747 -0.28681,0 -0.801095,0.0791 -1.147247,0.2522 -1.315378,0.42527 -1.325267,0.56868 -1.251094,0.65274 0,2.60109 1.251094,0.65769 1.325267,0.56373 1.315378,0.43022 1.147247,0.24725 0.801095,0.0841 0.28681,0 2.403286,-0.22747 0.267031,2.06702 0.390657,2.04724 -2.363724,0.52418 -0.271976,0.089 -0.736809,0.32637 -1.018676,0.58846 -1.107687,0.81593 -1.087906,0.94944 -0.993952,1.01374 0.806041,2.46757 1.389552,0.23736 1.443949,0.12856 1.374718,0 1.176916,-0.11868 0.781316,-0.16813 0.271977,-0.089 2.225262,-0.96429 0.880216,1.889 1.003841,1.82472 -2.076913,1.23131 -0.23736,0.17307 -0.59835,0.52912 -0.781315,0.88516 -0.810983,1.11264 -0.736811,1.2412 -0.628019,1.26593 1.52307,2.10163 1.404388,-0.20769 1.399444,-0.32143 1.315377,-0.42527 1.078017,-0.47472 0.692304,-0.40055 0.237361,-0.17308 1.80988,-1.5923 1.42417,1.51318 1.523068,1.42417 -1.60219,1.81977 -0.16813,0.23242 -0.405493,0.6923 -0.474722,1.07802 -0.420329,1.31043 -0.321426,1.40933 -0.207691,1.39945 2.101638,1.52801 1.270873,-0.63296 1.236257,-0.74176 1.117576,-0.80604 0.87527,-0.78131 0.539008,-0.59835 0.163187,-0.23242 1.231312,-2.0868 1.82966,1.00384 1.884056,0.89011 -0.959334,2.22032 -0.09395,0.27197 -0.16813,0.78626 -0.118684,1.16703 0.0049,1.37966 0.128577,1.43901 0.237361,1.3945 2.472515,0.80109 1.008785,-0.98406 0.954391,-1.08791 0.810986,-1.11758 0.588458,-1.01867 0.326372,-0.72692 0.08406,-0.27692 0.534065,-2.35878 2.042295,0.39066 2.062078,0.25714 -0.222526,2.40823 -0.0049,0.29175 0.08406,0.79121 0.252197,1.15219 0.425273,1.31044 0.573623,1.32526 0.652744,1.25604 2.59614,0 0.652794,-1.25604 0.573624,-1.32526 0.425271,-1.31044 0.252197,-1.15219 0.08406,-0.79121 -0.0049,-0.29175 -0.222526,-2.40823 2.062077,-0.25714 2.042273,-0.39066 0.53406,2.35878 0.0841,0.27692 0.32637,0.72692 0.58846,1.01867 0.81099,1.11758 0.95439,1.08791 1.00878,0.98406 2.47252,-0.80109 0.23736,-1.3945 0.12858,-1.43901 0.005,-1.37966 -0.11869,-1.16703 -0.16813,-0.78626 -0.094,-0.27197 -0.95934,-2.22032 1.88406,-0.89011 1.82966,-1.00384 1.23131,2.0868 0.16319,0.23242 0.53901,0.59835 0.87527,0.78131 1.11757,0.80604 1.23626,0.74176 1.27087,0.63296 2.10164,-1.52801 -0.20769,-1.39945 -0.32143,-1.40933 -0.42032,-1.31043 -0.47472,-1.07802 -0.4055,-0.6923 -0.16812,-0.23242 -1.6022,-1.81977 1.52307,-1.42417 1.42416,-1.51318 1.8099,1.5923 0.23735,0.17308 0.6923,0.40055 1.07802,0.47472 1.31539,0.42527 1.39944,0.32143 1.40439,0.20769 1.52308,-2.10163 -0.62803,-1.26593 -0.73681,-1.2412 -0.81098,-1.11264 -0.78131,-0.88516 -0.59837,-0.52912 -0.23735,-0.17307 -2.07693,-1.23131 1.00386,-1.82472 0.8802,-1.889 2.22529,0.96429 0.27196,0.089 0.78133,0.16813 1.17691,0.11868 1.37472,0 1.44394,-0.12856 1.38956,-0.23736 0.80603,-2.46757 -0.99394,-1.01374 -1.08791,-0.94944 -1.10768,-0.81593 -1.01868,-0.58846 -0.73682,-0.32637 -0.27198,-0.089 -2.36372,-0.52418 0.39066,-2.04724 0.26703,-2.06702 2.40328,0.22747 0.2868,0 0.8011,-0.0841 1.14725,-0.24725 1.31537,-0.43022 1.32528,-0.56373 1.25108,-0.65769 0,-2.60109 -1.25108,-0.65274 -1.32528,-0.56868 -1.31537,-0.42527 -1.14725,-0.2522 -0.8011,-0.0791 -0.2868,0 -2.40328,0.22747 -0.26703,-2.06207 -0.39066,-2.04725 2.36372,-0.53406 0.27198,-0.0841 0.73682,-0.32143 1.01868,-0.59834 1.10768,-0.81099 1.08791,-0.95439 0.99394,-1.00384 -0.80603,-2.47252 -1.38956,-0.23241 -1.44394,-0.13353 -1.37472,0 -1.17691,0.11374 -0.78133,0.16813 -0.27196,0.094 -2.22529,0.95934 -0.8802,-1.889 -1.00386,-1.81977 2.07693,-1.23626 0.23735,-0.16813 0.59837,-0.52912 0.78131,-0.88021 0.81098,-1.11758 0.73681,-1.2412 0.62803,-1.26593 -1.52308,-2.10164 -1.40439,0.20275 -1.39944,0.32143 -1.31539,0.43021 -1.07802,0.46978 -0.6923,0.40549 -0.23735,0.16813 -1.8099,1.60219 -1.42416,-1.51812 -1.52307,-1.42911 1.6022,-1.81483 0.16812,-0.22747 0.4055,-0.69725 0.47472,-1.07307 0.42032,-1.31538 0.32143,-1.40933 0.20769,-1.39945 -2.10164,-1.52801 -1.27087,0.62802 -1.23626,0.7467 -1.11757,0.80604 -0.87527,0.78131 -0.53901,0.59835 -0.16319,0.23736 -1.23131,2.08186 -1.82966,-1.00879 -1.88406,-0.88516 0.95934,-2.22032 0.094,-0.27197 0.16813,-0.78626 0.11869,-1.17197 -0.005,-1.37967 -0.12858,-1.43405 -0.23736,-1.39945 -2.47252,-0.80109 -1.00878,0.989 -0.95439,1.08791 -0.81099,1.11758 -0.58846,1.01373 -0.32637,0.73681 -0.0841,0.27197 -0.53406,2.35878 -2.042273,-0.38571 -2.062077,-0.26209 0.222526,-2.40823 0.0049,-0.28681 -0.08406,-0.80109 -0.252197,-1.15219 -0.425271,-1.30549 -0.573624,-1.33021 -0.652794,-1.25604 -2.59614,0 z m 1.295598,38.33881 c 1.542849,0 2.789046,1.25109 2.789046,2.789 0,1.5379 -1.246197,2.7791 -2.789046,2.7791 -1.537905,0 -2.784052,-1.2412 -2.784052,-2.7791 0,-1.53791 1.246147,-2.789 2.784052,-2.789 z"
         style="fill:#f1a875;fill-opacity:1;stroke:#000000;stroke-width:1.62714851;stroke-linecap:round;stroke-linejoin:round;stroke-miterlimit:4;stroke-dasharray:none;stroke-opacity:1"
         id="gear20" />
      <path
         inkscape:connector-curvature="0"
         d="m 45.467593,182.99463 -1.721415,1.30924 0.03778,1.22284 0.205101,1.16183 0.314558,1.13053 0.370813,0.9241 0.384812,0.60665 0.187694,0.18761 2.532242,2.41858 -1.275694,1.53589 -1.033273,1.70002 -3.126298,-1.6053 -0.276804,-0.0953 -0.664627,-0.14841 -0.960171,-0.11239 -1.20407,0.0941 -1.218119,0.22388 -1.125834,0.313 -0.664153,2.07211 0.753944,0.97875 0.835225,0.83174 0.924336,0.73945 0.905523,0.49552 0.64589,0.27977 0.200175,0.0531 3.554517,0.48243 -0.149698,1.95786 0.183396,2.0344 -3.529286,0.4996 -0.220476,0.0735 -0.647333,0.27849 -0.869332,0.53499 -0.920893,0.73985 -0.814524,0.88683 -0.795749,0.94312 0.683803,2.04993 1.221363,0.33282 1.165034,0.16394 1.180646,0.0388 1.016421,-0.094 0.684886,-0.16591 0.220474,-0.0735 3.141227,-1.66295 1.055897,1.68081 1.295108,1.47591 -2.554632,2.51507 -0.126625,0.16735 -0.348586,0.6115 -0.4267,0.93991 -0.295308,1.1463 -0.14986,1.22289 -0.03417,1.17907 1.775137,1.25845 1.088282,-0.42558 1.108582,-0.55224 1.017866,-0.65231 0.701981,-0.66162 0.442431,-0.5177 0.164145,-0.24241 1.536491,-3.16069 1.846953,0.73926 1.942285,0.46245 -0.573155,3.45446 -0.03749,0.26272 0.05645,0.71619 0.25823,0.96165 0.427141,1.09298 0.552247,1.10858 0.702337,0.99596 2.145465,-0.038 0.647176,-1.01345 0.551767,-1.11195 0.445439,-1.07127 0.220275,-0.99616 0.01705,-0.68336 -0.01884,-0.24395 -0.607486,-3.49329 1.937392,-0.4586 1.829419,-0.79791 1.611353,3.15843 0.131392,0.20639 0.423893,0.53628 0.774204,0.66443 0.999365,0.58932 1.108826,0.55802 1.125991,0.42197 1.738628,-1.25763 -0.03625,-1.21816 -0.223876,-1.21812 -0.314559,-1.13052 -0.370812,-0.9241 -0.384813,-0.60666 -0.187693,-0.18761 -2.532242,-2.41858 1.275694,-1.53589 1.033276,-1.70002 3.126295,1.6053 0.276804,0.0953 0.664627,0.14841 0.958608,0.1077 1.205633,-0.0894 1.218119,-0.22388 1.125834,-0.31299 0.664153,-2.07212 -0.735164,-0.92246 -0.854005,-0.88803 -0.924336,-0.73945 -0.905523,-0.49552 -0.64589,-0.27977 -0.201737,-0.0578 -3.552955,-0.47774 0.149697,-1.95786 -0.16462,-1.97811 3.510511,-0.55589 0.220476,-0.0735 0.647333,-0.27849 0.869332,-0.53499 0.920893,-0.73985 0.833301,-0.83054 0.776974,-0.9994 -0.683805,-2.04994 -1.202586,-0.27653 -1.183811,-0.22023 -1.180646,-0.0388 -1.016421,0.094 -0.684886,0.16591 -0.220474,0.0735 -3.122449,1.71924 -1.074675,-1.7371 -1.295107,-1.47591 2.553069,-2.51976 0.128186,-0.16265 0.348586,-0.6115 0.4267,-0.93991 0.295308,-1.14629 0.168631,-1.16661 0.01546,-1.23536 -1.775136,-1.25844 -1.088282,0.42557 -1.108583,0.55225 -1.019426,0.64761 -0.700419,0.66631 -0.442432,0.5177 -0.164147,0.24242 -1.536488,3.16068 -1.846954,-0.73926 -1.942285,-0.46245 0.573155,-3.45446 0.03749,-0.26272 -0.05645,-0.71619 -0.25823,-0.96165 -0.427141,-1.09297 -0.533466,-1.05229 -0.703909,-1.00066 -2.162674,-0.0137 -0.647176,1.01346 -0.551767,1.11195 -0.445439,1.07126 -0.220275,0.99616 -0.01707,0.68337 0.01726,0.23925 0.609055,3.49799 -1.923304,0.51645 -1.843507,0.74005 -1.612916,-3.16312 -0.12983,-0.2017 -0.423892,-0.53627 -0.774204,-0.66443 -0.999367,-0.58933 -1.108823,-0.55802 -1.125994,-0.42197 z m 11.625324,16.20738 c 1.372878,-0.46317 2.869556,0.28868 3.326465,1.65843 0.458479,1.37444 -0.307451,2.81326 -1.681892,3.27173 -1.369753,0.45692 -2.846088,-0.23394 -3.304566,-1.60839 -0.45691,-1.36975 0.290244,-2.86486 1.659993,-3.32177 z"
         style="fill:#50c67b;fill-opacity:1;stroke:#000000;stroke-width:1.62714851;stroke-linecap:round;stroke-linejoin:round;stroke-miterlimit:4;stroke-dasharray:none;stroke-opacity:1"
         id="gear10" />
    </g>
    <g
       transform="translate(47.252802,148.39111)"
       id="g5020">
      <text
         transform="translate(-102.90219,-7.0537792)"
         xml:space="preserve"
         style="font-style:normal;font-variant:normal;font-weight:normal;font-stretch:normal;font-size:35px;line-height:125%;font-family:'Liberation Mono';-inkscape-font-specification:'Liberation Mono';text-align:end;letter-spacing:0px;word-spacing:0px;text-anchor:end;fill:#000000;fill-opacity:1;stroke:none;stroke-width:1px;stroke-linecap:butt;stroke-linejoin:miter;stroke-opacity:1"
         id="text4986"
         sodipodi:linespacing="125%"
         x="26.112469"
         y="-19.364304"><textPath
           style="font-style:normal;font-variant:normal;font-weight:normal;font-stretch:normal;font-size:25px;font-family:'Arial Black';-inkscape-font-specification:'Arial Black, '"
           xlink:href="#path5015"
           startOffset="100%"
           id="textPath5017">open<tspan
   id="tspan5702"
   style="font-style:normal;font-variant:normal;font-weight:normal;font-stretch:normal;font-family:Arial;-inkscape-font-specification:Arial">meca  </tspan></textPath></text>
      <path
         style="fill:none;fill-rule:evenodd;stroke:none;stroke-width:1px;stroke-linecap:butt;stroke-linejoin:miter;stroke-opacity:1"
         d="m 112.28675,-43.294213 c 79.40698,6.895775 101.40672,50.2690736 106.22162,104.561901"
         id="path5813"
         inkscape:connector-curvature="0"
         sodipodi:nodetypes="cc" />
    </g>
  </g>
</svg>
